{
    "$schema": "https://themost-framework.github.io/themost/models/2018/2/schema.json",
    "@id": "https://universis.io/entities/CourseProvider",
    "name": "CourseProvider",
    "title": "CourseProviders",
    "inherits": "ServiceProvider",
    "version": "1.1.0",
    "fields": [
      {
        "@id": "http://schema.org/url",
        "name": "url",
        "title": "url",
        "nullable": false,
        "description": "URL of the item.",
        "type": "URL"
      }
    ],
    "constraints": [
      {
        "type": "unique",
        "fields": [
          "url"
        ]
      }
    ],
    "privileges": [
      {
        "mask": 15,
        "type": "global"
      },
      {
        "mask": 15,
        "type": "global",
        "account": "Administrators"
      }
    ],
    "seed": [
    ]
  }
  