{
    "$schema": "https://themost-framework.github.io/themost/models/2018/2/schema.json",
    "@id": "https://universis.io/schemas/InternshipRegisterPreference",
    "name": "InternshipRegisterPreference",
    "description": "A set of preferences of an internship register action",
    "title": "InternshipRegisterPreferences",
    "abstract": false,
    "sealed": false,
    "hidden": false,
    "version": "0.5",
    "implements": "StructuredValue",
    "fields": [
        {
            "@id": "http://schema.org/startAt",
            "name": "startingMonth",
            "title": "Starting Month",
            "description": "The preferred starting month of an internship e.g. Jan, Feb etc",
            "type": "Integer"
        },
        {
            "@id": "http://schema.org/startAt",
            "name": "startingYear",
            "title": "Starting Year",
            "description": "The preferred starting year of an internship e.g. 2022, 2023 etc",
            "type": "Integer"
        },
        {
            "@id": "http://schema.org/duration",
            "name": "duration",
            "title": "Duration",
            "description": "The preferred duration in months e.g. 1,2..6 etc",
            "type": "Integer"
        },
        {
            "@id": "http://schema.org/parent",
            "name": "internshipRegistration",
            "title": "Internship Registration",
            "description": "The parent internship registration",
            "type": "InternshipRegisterAction",
            "nullable": false
        }
    ],
    "constraints": [
        {
            "type": "unique",
            "fields": [
                "internshipRegistration"
            ]
        }
    ],
    "eventListeners": [
    ],
    "privileges": [
        {
            "mask": 15,
            "type": "global"
        },
        {
            "mask": 15,
            "type": "global",
            "account": "Administrators"
        },
        {
            "mask": 15,
            "type": "self",
            "account": "Registrar",
            "filter": "internshipRegistration/initiator/studyProgram/department eq departments()"
        },
        {
            "mask": 1,
            "type": "self",
            "filter": "internshipRegistration/owner eq me()"
        },
        {
            "mask": 14,
            "type": "self",
            "filter": "internshipRegistration/owner eq me() and internshipRegistration/actionStatus/alternateName eq 'PotentialActionStatus'",
            "account": "Candidates"
        }
    ]
}
