{
  "$schema": "https://themost-framework.github.io/themost/models/2018/2/schema.json",
  "@id": "https://universis.io/entities/StudyProgramExtension",
  "name": "StudyProgramExtension",
  "description": "Contains a collection of extra field required for study programs.",
  "title": "StudyProgramExtension",
  "abstract": false,
  "sealed": false,
  "hidden": false,
  "version": "2.0.0",
  "fields": [
    {
      "@id": "https://themost.io/schemas/id",
      "name": "id",
      "title": "ID",
      "description": "The identifier of the item.",
      "type": "Counter",
      "primary": true,
      "nullable": false
    },
    {
      "name": "studyProgram",
      "@id": "https://universis.io/schemas/studyProgram",
      "title": "Program of study",
      "description": "A curriculum of two or more courses that is intended or understood to lead to a degree, diploma, or certificate.",
      "type": "StudyProgram",
      "editable": false,
      "nullable": false
    },
    {
      "name": "studyType",
      "title": "Study type",
      "description": "Study type",
      "type": "StudyType"
    },
    {
      "name": "studyTitleType",
      "title": "Study title type",
      "description": "Study title description",
      "type": "StudyTitleType"
    },
    {
      "name": "specializationTitleType",
      "title": "Specialization title type",
      "type": "SpecializationTitleType",
      "value": "return:javascript { alternateName: 'general' }"
    },
    {
      "name": "notes",
      "title": "Notes",
      "description": "Notes",
      "many": false,
      "type": "Note"
    },
    {
      "name": "officialDuration",
      "title": "Official duration",
      "description": "The official duration",
      "type": "Note"
    },
    {
      "name": "accessRequirements",
      "title": "Access requirements",
      "description": "Requirements for accessing this program",
      "type": "Note",
      "many": false
    },
    {
      "name": "modeOfStudy",
      "title": "Study mode",
      "description": "Study mode",
      "type": "Note"
    },
    {
      "name": "degreeRequirements",
      "title": "Degree requirements",
      "description": "Degree requirements",
      "type": "Note",
      "many": false
    },
    {
      "name": "accessToFurther",
      "title": "Further study",
      "description": "Access to further study",
      "type": "Note"
    },
    {
      "name": "professionalStatus",
      "title": "Professional status",
      "description": "Professional status",
      "type": "Note",
      "many": false
    },
    {
      "name": "gradingScheme",
      "title": "Grading scheme",
      "description": "The grading scheme",
      "type": "Note"
    },
    {
      "name": "otherInfo",
      "title": "Other Info",
      "description": "Other Info",
      "type": "Note"
    },
    {
      "name": "furtherInfo",
      "title": "Further Info",
      "description": "Further Info",
      "type": "Note"
    },
    {
      "name": "languageOfInstruction",
      "title": "Language Of Instruction",
      "description": "Language Of Instruction",
      "type": "Note"
    },
    {
      "name": "degreeDescription",
      "title": "Degree description",
      "description": "A description for study program degree",
      "type": "Text",
      "nullable": true,
      "size": 150
    },
    {
      "name": "locales",
      "type": "StudyProgramExtensionLocale",
      "mapping": {
        "associationType": "association",
        "cascade": "delete",
        "parentModel": "StudyProgramExtension",
        "parentField": "id",
        "childModel": "StudyProgramExtensionLocale",
        "childField": "object"
      }
    },
    {
      "name": "locale",
      "type": "StudyProgramExtensionLocale",
      "readonly": true,
      "editable": false,
      "many": true,
      "expandable": true,
      "multiplicity": "ZeroOrOne",
      "mapping": {
        "associationType": "association",
        "cascade": "delete",
        "parentModel": "StudyProgramExtension",
        "parentField": "id",
        "childModel": "StudyProgramExtensionLocale",
        "childField": "object",
        "options": {
          "$filter": "inLanguage eq lang()",
          "$first": true
        }
      }
    },
    {
      "name": "requiredInternship",
      "title": "Required internship",
      "description": "An internship is required to complete this study program",
      "type": "Boolean"
    }
  ],
  "constraints": [
    {
      "type": "unique",
      "fields": [
        "studyProgram"
      ]
    }
  ],
  "privileges": [
    {
      "mask": 15,
      "type": "global"
    },
    {
      "mask": 1,
      "type": "global",
      "account": "*"
    },
    {
      "mask": 6,
      "type": "self",
      "account": "Registrar",
      "filter": "studyProgram/department eq departments()"
    },
    {
      "mask": 15,
      "type": "global",
      "account": "Administrators"
    }
  ],
  "eventListeners": [{
    "type": "./listeners/data-localization"
  }]

}
